955794 395601 525
439597 59730 449
887040 712978 525
540490 746702 509
119239 269664 443
686089 541448 509
296933 404148 441
119494 590318 470
40837 671365 509
539833 446674 470
759647 235541 509
749627 85000 509
191164 507554 449
605381 638037 509
814544 663456 504
929811 853088 476
861092 72705 525
668650 135221 509
888862 359266 525
721362 82006 509
921994 908562 476
643062 714076 504
305274 37948 443
103610 430675 449
778089 146 509
32523 869822 525
216782 485895 449
785433 478792 509
837098 992539 525
117832 247710 443
595644 69522 470
555459 765711 509
615580 475901 470
51557 866707 525
44469 234115 443
983526 998599 440
533630 826045 509
824538 777583 468
237257 483158 449
809921 775320 468
786491 566218 509
411856 253827 449
621702 521599 452
433044 689379 509
142699 495543 449
511979 580226 452
495362 545784 470
143805 243789 443
944047 699271 525
139959 770941 509
618508 323758 470
419420 45634 449
899315 34367 525
781357 115371 509
822223 136572 509
450180 813726 509
37786 269293 443
447053 174031 449
375963 300397 441
361065 111358 443
878754 449109 525
609113 958844 525
335599 850443 525
473084 533273 470
807779 962861 525
670148 89693 509
675411 64870 509
543741 80864 470
827282 34212 509
820 575790 470
38057 913148 525
169307 1064 383
605131 339239 470
589547 806 470
271415 248284 407
986468 210374 525
675831 628695 442
430840 595189 470
638323 426935 509
434362 957301 525
711209 174158 509
551720 64615 470
604874 606449 341
831245 712640 468
969565 180415 525
771390 537866 509
401824 908091 525
582547 979625 525
232372 580256 470
646155 571869 509
792002 273008 509
971864 721353 525
509927 597570 470
447017 604811 470
713223 275640 509
11588 221923 386
288136 706026 509
733703 816330 468
293187 469349 449
775873 616461 509
63954 538533 470
132615 791125 509
513925 183247 470
545085 847208 525
703140 613899 509
288041 318835 389
280799 723562 509
161228 627221 509
931966 815032 525
247089 479172 449
636085 31567 509
375662 433598 449
974058 131570 525
424122 741847 509
2981 401245 443
604322 684259 509
603366 207577 470
702897 903379 525
735420 320953 509
656912 708803 504
592423 906145 525
721389 162940 509
562762 293681 470
214873 602659 470
602322 308064 470
968670 890495 507
344232 894698 525
369338 705433 509
983518 770706 525
485825 901679 525
674771 88691 509
32623 340979 443
356086 355164 379
919174 538032 525
261525 225725 443
106012 702942 509
270085 901370 525
952375 175810 525
306603 980320 525
37347 961441 525
327126 561602 470
786819 571505 509
830286 956132 525
64717 136429 354
836074 287096 509
470519 69709 449
26578 502960 449
667354 144594 509
590665 57521 470
353773 469591 449
80660 210219 383
126093 787820 509
722331 774214 468
118963 372220 443
1778 781308 509
977452 683089 525
747995 412335 509
217396 375394 443
490536 53647 449
183490 275552 443
203684 871200 525
717054 301945 509
758452 527310 509
187760 462914 449
396294 747221 509
839994 762721 525
967394 733359 525
525076 535507 408
114820 907397 525
424432 33896 449
952379 303495 525
890478 714720 525
773781 415977 509
226800 625284 470
680636 63117 509
863627 811396 525
898388 647867 525
631154 35082 509
554942 521919 452
794758 405833 509
586314 905704 525
830949 824255 419
83516 8621 351
72586 294543 443
221120 522392 470
645021 737190 504
55485 444760 449
264190 917372 525
61669 703466 509
808023 414792 509
33256 517247 470
310065 793453 509
89421 274470 443
89175 407080 443
615674 594830 447
586763 516816 452
615207 470071 470
523365 304699 470
64267 61339 330
146695 952309 525
718261 162899 509
266991 927133 525
931532 307282 525
270994 142286 443
146393 982347 525
8106 464474 449
752019 784609 468
271142 317625 389
401983 995580 525
802516 233752 509
481258 892445 525
809361 767668 468
980694 889468 507
763079 140984 509
17222 751676 509
64119 10979 340
872641 827216 525
433893 563309 470
881868 722080 525
930255 360471 525
904302 942154 507
773051 691259 504
685308 485485 509
329890 380851 441
503364 770830 509
893879 197449 525
477260 594992 470
758843 353506 509
211214 356672 443
395560 100200 443
75091 329161 443
198850 722025 509
811471 658840 504
99844 507647 449
547381 316472 470
916801 282133 525
606260 593320 403
879403 428867 525
743471 329611 509
535630 524626 408
328737 15815 443
681439 886738 525
220737 549759 470
834878 130309 509
746133 202391 509
683797 525081 509
630190 634699 385
82770 575655 470
963855 232302 525
573349 671163 509
