65191 303926 443
572165 966172 525
219631 386992 443
114074 217196 386
968237 204198 525
268390 217303 443
278544 425910 449
182568 333582 443
209256 386798 443
446238 948701 525
775472 87070 509
541006 24668 470
56701 253741 443
281907 349427 441
708650 825416 468
972933 396910 525
790189 52164 509
409981 219797 443
258435 502008 449
139778 259864 443
58853 836160 509
76020 449100 449
971702 48030 525
722704 636646 504
248853 913188 525
43266 18227 324
884899 69664 525
839170 106383 525
590543 763512 509
498973 104650 449
205609 304878 443
806187 349617 509
283314 177196 443
283996 415802 449
160684 318146 443
239597 519485 470
588380 618537 447
312568 697192 509
204634 628430 509
656818 341090 509
602817 481341 470
391860 330461 441
218841 591158 470
994254 247562 525
371989 608538 470
950920 527952 525
120469 335775 443
15203 456693 449
153506 609977 470
416675 672120 509
314022 379594 441
619839 663041 509
293044 395038 441
145792 674149 509
952563 454970 525
287807 381526 441
361196 290336 441
494777 989912 525
365737 99713 443
160879 899995 525
295757 638687 509
896219 979809 507
373105 299900 441
480619 57845 449
209948 574378 470
608611 876293 525
334975 620996 470
216611 485945 449
267946 570789 470
356981 891120 525
23405 102554 351
574234 271219 470
787451 739089 468
579798 284084 470
153182 337692 443
863727 432461 525
890635 446649 525
586197 465368 470
713131 13311 509
389979 346578 436
194003 483953 449
576446 930617 525
79859 945331 525
526573 237780 470
623217 868124 525
893847 945246 507
227787 317423 443
756067 372923 509
195626 790841 509
58643 974899 525
789694 573622 509
231825 383361 441
271025 813048 509
611180 894732 525
350104 308499 441
541452 186780 470
736142 792220 468
985318 563409 525
64079 588970 470
135792 769574 509
413895 715079 509
461133 50001 449
855028 466229 525
548370 218992 470
845663 231767 525
444961 604011 470
847551 793518 525
701014 350165 509
658199 285003 509
31495 133529 354
47468 311799 443
209560 98715 383
881582 477546 525
414796 380686 449
549659 880475 525
331636 356063 441
957888 149018 525
302682 540473 470
107761 111969 323
112921 882125 525
278924 253376 407
61618 808023 509
203065 205324 311
361845 786289 509
539609 225906 470
168049 600204 470
840893 848230 419
214543 762138 509
89173 85898 333
272388 907972 525
455399 66386 449
505253 637072 509
841641 169095 525
629491 25567 509
254074 972067 525
265065 791594 509
63340 677278 509
962317 770228 525
884502 461268 525
891174 740080 525
636937 358613 509
700284 566086 509
321953 510134 449
423306 119726 449
883261 368394 525
355054 355648 379
767790 915189 525
831019 322272 509
206625 203159 355
599365 966680 525
210552 698574 509
240737 867303 525
940889 525006 525
12040 307119 443
232855 598864 470
3367 955191 525
900339 784738 525
699451 123986 509
301931 333010 384
432941 718398 509
30938 597738 470
523152 126413 470
296652 535285 470
243751 975737 525
892439 14117 525
215039 79378 383
601973 557096 434
422774 382531 449
254563 810882 509
880093 353648 525
258191 486893 449
560094 416650 470
737594 271313 509
629942 29999 509
974367 293946 525
82003 337144 443
627345 835288 504
150081 388592 443
993168 449599 525
174034 908879 525
779575 814194 468
531737 198216 470
577635 703923 509
531187 332756 470
748548 310054 509
950579 325912 525
612971 577694 434
147553 645314 509
675423 970776 525
368388 279304 441
44700 413478 449
965628 710746 525
90803 389352 443
193281 326631 443
420691 813267 509
971086 47239 525
635783 701254 442
599746 479867 470
222799 364921 443
497149 460035 444
520010 926615 525
264546 757575 509
947544 169677 525
610781 110558 470
580200 920005 525
695860 923453 525
626101 54791 470
234553 853177 525
979037 352825 525
93477 219262 386
969967 913821 507
372106 226018 443
681851 792659 504
55487 901473 525
733255 220837 509
13904 746785 509
684860 919299 525
684999 426836 509
211953 531529 470
9039 553076 470
393073 833610 509
664365 468362 509
870344 892924 445
104017 793921 509
2516 814208 509
7575 763851 509
254849 935816 525
569466 758211 509
65196 368447 443
869777 209304 525
306576 284666 389
375065 984684 525
657575 398087 509
510581 210895 449
411548 842077 525
362453 177580 443
675882 325861 509
416110 360279 449
340157 793456 509
565907 421697 470
212050 219464 386
936584 378259 525
148800 614281 470
35559 497834 449
90408 492533 449
276565 826675 509
773685 598987 509
372922 680713 509
442264 697895 509
208328 855325 525
516870 511994 395
455600 893516 525
624628 716412 509
354194 9085 443
400515 425684 449
45365 471613 449
143798 642619 509
854112 873834 432
721491 551213 509
387906 886431 525
824966 687967 504
991408 367439 525
263798 623486 470
686133 888042 525
749640 936148 525
543073 882391 525
197142 503380 449
376509 797134 509
905961 467091 525
892493 872756 445
585056 850139 525
914191 229844 525
634403 733462 504
790527 416572 509
328782 275407 389
7490 872534 525
256940 902285 525
57658 555992 470
129059 818802 509
61034 366015 443
606971 977711 525
717621 969366 525
728935 379458 509
236072 108774 443
75173 770607 509
141769 908064 525
365995 778128 509
580239 844243 525
945318 868371 507
389495 411369 449
387449 640376 509
306180 630959 509
302947 420448 449
925494 716119 525
185784 145533 383
992690 167558 525
536568 634015 509
689259 792589 504
912927 234066 525
365768 648256 509
