951829 207496 525
182980 464916 449
80825 352715 443
42183 849181 525
788501 264052 509
749427 405316 509
539754 583653 452
413994 401114 449
726313 218627 509
57094 319661 443
860167 770074 525
611827 163343 470
235476 914542 525
783380 508607 509
686606 358266 509
458501 341829 449
634346 287796 509
990495 84690 525
634994 117563 509
251685 983034 525
196857 143070 383
653647 551145 509
424657 824484 509
437455 344949 449
180288 753187 509
266789 717865 509
245577 321108 407
866008 658016 525
785791 496056 509
680723 514790 509
369559 711439 509
514578 842688 525
146036 78371 375
67310 112794 354
973297 817978 525
114895 53163 354
385013 237436 441
908726 454778 525
535608 919947 525
301348 636408 509
940202 113039 525
647040 758405 504
980619 113030 525
4805 956008 525
997401 483276 525
270135 555774 470
669544 921230 525
908069 371427 525
714504 914349 525
133490 33587 354
658681 770461 504
397393 232146 441
57838 548167 470
934087 78978 525
359282 624338 470
170615 380340 443
207614 785139 509
285286 150784 443
163471 349419 443
321928 858252 525
298471 920035 525
41787 92888 351
290019 438464 449
221941 191586 386
988510 853006 507
335799 974647 525
644502 373168 509
677504 489570 509
82591 252768 443
257352 582135 470
845771 439764 525
499878 912077 525
400008 240456 441
22525 686630 509
617602 976220 525
78137 828461 509
554912 644334 509
170175 623738 470
271517 930305 525
161056 793867 509
367253 511500 449
23224 243536 443
260346 287484 407
297458 45421 443
776417 294577 509
319040 246142 407
888278 625342 525
92919 990672 525
53041 342535 443
353442 938549 525
867667 182087 525
822332 748182 468
307062 41271 443
185972 133478 383
657406 803765 504
996559 367107 525
359323 526550 470
664301 140324 509
558078 632116 509
490042 769316 509
39989 867638 525
71136 794915 509
211603 611341 470
19012 597062 470
156333 686390 509
429187 376410 449
379406 475179 449
918373 874960 476
799139 14922 509
119473 660013 509
471731 537170 470
249776 947112 525
186295 767774 509
245313 342292 407
477226 771649 509
259830 978706 525
886972 563582 525
280488 127211 443
357914 896083 525
595780 272094 470
498950 873402 525
226689 374434 443
864824 58896 525
158569 131646 383
143590 826723 509
353845 969813 525
259980 880434 525
739367 357762 509
621492 502287 470
250270 463136 449
92818 620973 470
202727 372337 443
112452 966066 525
794183 69332 509
902534 433158 525
152769 427335 449
982396 795238 525
45172 310593 443
225739 28252 386
793564 565304 509
118579 475926 449
609823 868895 525
587744 896386 525
135465 982609 525
762205 760536 362
449645 750834 509
663968 52814 509
434526 176778 449
417738 656557 509
350907 168075 443
164912 149438 383
835383 747143 468
625593 870407 525
565613 739743 509
383707 718691 509
26171 348690 443
714966 254350 509
700427 96371 509
660696 995050 525
735219 481428 509
299494 833129 509
415035 950070 525
933286 326672 525
866313 156067 525
202316 681840 509
792239 204931 509
142888 202776 383
177772 872715 525
862037 35762 525
920692 296119 525
976932 471465 525
659752 499696 509
107576 828664 509
14971 779115 509
621473 932756 525
269127 329859 407
381635 469469 449
653599 739888 504
981416 824574 525
439604 256205 449
145020 723075 509
394113 285389 441
483847 857165 525
266770 333427 407
47748 724324 509
34861 117635 354
86141 708118 509
994362 429145 525
724229 859101 525
917225 708823 525
144494 206491 383
514956 110223 470
629870 659995 429
10451 474088 449
534918 588648 452
119846 670614 509
219337 547489 470
492392 458752 444
316197 120351 443
388256 916951 525
448457 784128 509
698034 194415 509
449681 179071 449
557162 466277 470
779979 963240 525
763125 70728 509
384419 872690 525
750295 606063 509
504862 617690 470
856340 684373 525
