168075 677181
723204 750203
628405 440427
571372 919404
850344 536454
681582 162995
618794 618704
210884 763440
29525 707643
999169 716153
83751 889818
829095 792258
868808 778253
900225 871492
360346 875491
99496 444643
326973 725259
25670 712645
828878 674896
384625 814408
868693 947301
190766 446560
263185 228405
975500 476048
495089 526880
911082 737749
504390 885322
713615 750697
320934 536732
859036 455467
90466 280155
891070 839585
899468 610709
983021 216169
774959 317272
632357 551406
905776 948280
657033 281043
177741 125331
288369 982696
893821 373507
519970 887196
35161 991065
524289 338188
544697 654773
101292 937370
419856 112728
709967 605610
244902 226829
510612 530346
557966 771051
896280 790347
653132 530923
26313 559572
116729 27704
639813 878106
24744 248199
947898 801826
909842 416834
470092 139365
100495 515273
432518 783283
249776 66591
474323 154868
571020 835992
792835 15922
810920 362589
179401 306656
860384 600303
247237 136238
925071 961417
405666 343687
401877 910542
727795 877929
92282 58629
672670 671847
684817 540381
865417 602939
872396 937456
534633 914437
409801 493631
302960 776815
103440 143605
960670 559832
146387 749776
51901 579962
53750 419305
376543 937170
152361 699234
897370 582737
278105 814934
775096 540149
460760 744089
787462 889783
605599 31413
672398 450009
485701 23559
482108 66034
254475 726519
482897 721890
799099 624848
670479 698288
342998 993100
704172 779454
653529 430493
50938 584073
225125 863097
56916 610104
70117 270128
699147 310558
874384 20643
206219 415237
100270 405820
598923 753985
798069 630785
177956 281781
441987 937812
306844 289870
733655 553215
892703 591333
31659 706835
290531 133518
243101 525859
966642 602756
219062 499541
203450 92116
112695 722589
186088 298053
366676 775242
994766 161048
670246 937891
721183 606439
922882 336443
331314 665552
989292 324405
229289 801652
353626 977688
976410 540410
433303 872479
921050 512576
788930 478778
423713 98196
60003 429795
198136 661164
286980 893673
563706 963857
354760 482398
839500 885749
942509 665478
367133 906508
2047 308950
949693 929246
933561 436872
85153 663261
777115 632002
226325 830590
962703 330800
428849 905485
831067 118665
202065 950171
820698 275154
280390 667071
659237 561823
96729 226082
718969 120212
580963 850566
756893 610192
975390 232545
511234 954409
76405 950474
470361 13113
530092 221873
618147 307516
247672 2835
104059 689463
161862 209589
852878 184801
784566 761824
421093 802035
173505 366258
676524 700403
434850 928578
208072 355531
530174 466853
709680 74926
770307 841947
600978 991671
984147 556347
978325 979408
176497 961189
340651 331790
902229 22404
411807 26074
64256 321398
278890 501729
300880 20356
345436 643147
170453 24728
294829 540855
943 583639
252348 634218
321765 494004
781926 491696
568375 74868
905534 589886
366714 374859
398950 746569
386871 707281
590658 142878
318618 764816
719453 619842
846804 685507
657469 868957
819174 301913
879810 842647
956288 68139
450215 122597
248826 341585
